Wikipedia usage by Spanish professors
…
miss_var_summary(wiki)

## # A tibble: 53 x 3
##    variable       n_miss pct_miss
##    <chr>           <int>    <dbl>
##  1 OTHERSTATUS       540    59.1 
##  2 OTHER_POSITION    261    28.6 
##  3 Vis2              117    12.8 
##  4 UOC_POSITION      113    12.4 
##  5 PEU3               97    10.6 
##  6 Vis1               72     7.89
##  7 Im3                57     6.24
##  8 JR2                53     5.81
##  9 BI2                43     4.71
## 10 Inc4               42     4.60
## # ... with 43 more rows

# Row-wis
miss_case_summary(wiki)

## # A tibble: 913 x 3
##     case n_miss pct_miss
##    <int>  <int>    <dbl>
##  1   532     22     41.5
##  2   792     22     41.5
##  3   907     22     41.5
##  4   137     21     39.6
##  5   301     20     37.7
##  6   257     18     34.0
##  7   721     18     34.0
##  8    75     17     32.1
##  9   570     17     32.1
## 10   875     17     32.1
## # ... with 903 more rows
…
Here we see that both UOC_Position and Other_Position have large frequency ratios compared to many other potential predictors. Add to that, the large percentage of missing values and both these variables may be candidates to drop completely.

wiki %>% dplyr::select(-c(OTHERSTATUS,OTHER_POSITION)) -> wiki
# Take look at missing data after removing problematic columns
miss_case_summary(wiki)

## # A tibble: 913 x 3
##     case n_miss pct_miss
##    <int>  <int>    <dbl>
##  1   532     21     41.2
##  2   792     21     41.2
##  3   907     21     41.2
##  4   301     20     39.2
##  5   137     19     37.3
##  6   721     18     35.3
##  7   257     17     33.3
##  8   570     17     33.3
##  9   875     16     31.4
## 10    75     15     29.4
## # ... with 903 more rows
…
miss_var_summary(wiki)

## # A tibble: 51 x 3
##    variable     n_miss pct_miss
##    <chr>         <int>    <dbl>
##  1 Vis2            117    12.8 
##  2 UOC_POSITION    113    12.4 
##  3 PEU3             97    10.6 
##  4 Vis1             72     7.89
##  5 Im3              57     6.24
##  6 JR2              53     5.81
##  7 BI2              43     4.71
##  8 Inc4             42     4.60
##  9 Inc3             37     4.05
## 10 Inc1             35     3.83
## # ... with 41 more rows

Create Score Binary Variable and Final Dataset

Here is where we actually preprocess the data to create a composite usage score and then use that to create the binary response variable. In addition, we like to see how many complete cases in the data we can get.

# Remove variables with missing percentage > 10 and the use variables
wiki %>% select(-c(Vis2,UOC_POSITION,PEU3)) -> wiki
miss_case_summary(wiki)

## # A tibble: 913 x 3
##     case n_miss pct_miss
##    <int>  <int>    <dbl>
##  1   792     20     41.7
##  2   532     19     39.6
##  3   907     19     39.6
##  4   301     18     37.5
##  5   137     17     35.4
##  6   257     17     35.4
##  7   721     16     33.3
##  8   570     15     31.2
##  9   756     15     31.2
## 10   875     15     31.2
## # ... with 903 more rows
…
